<?xml version="1.0" encoding="iso-8859-1"?>
<!-- Generator: Adobe Illustrator 19.0.0, SVG Export Plug-In . SVG Version: 6.00 Build 0)  -->
<svg xmlns="http://www.w3.org/2000/svg" xmlns:xlink="http://www.w3.org/1999/xlink" version="1.1" id="Layer_1" x="0px" y="0px" viewBox="0 0 512 512" style="enable-background:new 0 0 512 512;" xml:space="preserve" width="512px" height="512px">
<g>
	<g>
		<g>
			<path d="M256,96c-5.896,0-10.667,4.771-10.667,10.667V192c0,5.896,4.771,10.667,10.667,10.667s10.667-4.771,10.667-10.667     v-85.333C266.667,100.771,261.896,96,256,96z" fill="#D80027"/>
			<circle cx="256" cy="234.667" r="10.667" fill="#D80027"/>
			<path d="M256,0C161.896,0,85.333,76.563,85.333,170.667c0,28.25,7.063,56.26,20.49,81.104L246.667,506.5     c1.875,3.396,5.448,5.5,9.333,5.5s7.458-2.104,9.333-5.5l140.896-254.813c13.375-24.76,20.438-52.771,20.438-81.021     C426.667,76.563,350.104,0,256,0z M256,288c-64.698,0-117.333-52.635-117.333-117.333S191.302,53.333,256,53.333     s117.333,52.635,117.333,117.333S320.698,288,256,288z" fill="#D80027"/>
		</g>
	</g>
</g>
<g>
</g>
<g>
</g>
<g>
</g>
<g>
</g>
<g>
</g>
<g>
</g>
<g>
</g>
<g>
</g>
<g>
</g>
<g>
</g>
<g>
</g>
<g>
</g>
<g>
</g>
<g>
</g>
<g>
</g>
</svg>
